p9o V % 0C

B’V'E‘, %Sl
pajsabbns

V _TE : A¥ 1O 90/!0
:2301 ang
‘xy1 0004
gng

11400714 YNNHI 30HJ
y39xng 3SnoHM3X8
39INFf QD

Y1S¥d YH3 0377149 ODI
39INF OD

WOL/ZH3 QIYM

‘+S4L0N

ns

J .ML]

BJLU L Oe

0 18L8—PS§(Z1G)
LB/L8tGG

ANNOS * ‘ODNOMMA 1

gL/80/ L0 407:; g (
f f t ) ‘: M “
C3 |gg 1HYI 2 / ("]":\:
9064 MOTLYIN |
A |9M HOHUHY C , j

 
