if‘i {it Thu [fﬁwfﬁhﬁ

 

73303 Somain Dr
Austin, TX

_-_————‘.—-—-—¢=u_,—

—
-- --‘ —_- ——————_-_—_

505/truong
/29/2018 6:41 PM

.-~-
_‘——,—
—-—-_-
-—-—-——~“—n"u---‘
—-a—
——-—
-

        

USE Burger
14.00
WHa a’gn-J Ha GFO‘JE Chard 8100¥11

Subtota1 E
T "ales- Tax $5421.39]
0ta1 Due $56. 29
# XXXXXXXXXXXX8086

VIC‘ A 0369
Auth a ngQ‘9 “m”

 

 
